…
If necessary, you can make a `DataFrame` object using a row representation of the table.

```julia
using OpenXL
using DataFrames

julia> xlsx = xl_parse(xl_sample_ticker24h_xlsx())
1-element XLWorkbook:
 2682x19 XLSheet("Ticker24h")

julia> DataFrame(eachrow(xlsx["Ticker24h"], header = true))
2681×19 DataFrame
  Row │ symbol    askPrice    askQty      bidPrice    bidQty      lastQty    openPrice  ⋯
      │ String    Float64     Float64     Float64     Float64     Float64    Float64    ⋯
──────┼──────────────────────────────────────────────────────────────────────────────────
    1 │ ETHBTC     0.05296        8.1061   0.05295       50.5655      1.15     0.05477  ⋯
    2 │ LTCBTC     0.001072     308.762    0.001071    1433.7        25.421    0.001197
    3 │ BNBBTC     0.008633       1.036    0.008632       8.139       0.013    0.009138
    4 │ NEOBTC     0.0001604      6.52     0.0001601    318.15       33.69     0.000181
    5 │ QTUMETH    0.000696     100.3      0.000692     792.4       157.3      0.000738 ⋯
  ⋮   │    ⋮          ⋮           ⋮           ⋮           ⋮           ⋮           ⋮     ⋱
 2678 │ BAKETRY    6.72        3641.0      6.71        3071.0     11350.0      8.79
 2679 │ WIFBRL     9.59          15.4      8.81        1595.9         4.5     10.05
 2680 │ ZKUSDC     0.1386      3612.7      0.138      11976.9       812.0      0.1628
 2681 │ ZROUSDC    2.925        437.83     2.922        353.73       16.08     3.24     ⋯
                                                         13 columns and 2672 rows omitted
```
…
