…
If necessary, you can make a `DataFrame` object using a row representation of the table.

```julia-repl
using OpenXL
using DataFrames

julia> xlsx = xl_parse(xl_sample_ticker24h_xlsx())
1-element XLWorkbook:
 2682x19 XLSheet("Ticker24h")

julia> DataFrame(eachrow(xlsx["Ticker24h"], header = true))
2681×19 DataFrame
  Row │ symbol    askPrice    askQty      bidPrice    bidQty      lastQty    openPrice    highPrice    lowPrice    lastPrice   openTime                       closeTime                      prevClosePrice  priceChange  priceChangePercent  quoteVolume    count     volume         weightedAvgPrice 
      │ String    Float64     Float64     Float64     Float64     Float64    Float64      Float64      Float64     Float64     String                         String                         Float64         Float64      Float64             Float64        Float64   Float64        Float64          
──────┼────────────────────────────────────────────────────────────────────────────────────────────────────────────────────────────────────────────────────────────────────────────────────────────────────────────────────────────────────────────────────────────────────────────────────────────────
    1 │ ETHBTC     0.05296        8.1061   0.05295       50.5655      1.15     0.05477      0.05501     0.05216     0.05295    2024-07-04T08:24:48.264999936  2024-07-05T08:24:48.264999936       0.05478      -0.00182               -3.323   4647.25       473424.0  86904.9              0.0534751
    2 │ LTCBTC     0.001072     308.762    0.001071    1433.7        25.421    0.001197     0.001213    0.001029    0.001071   2024-07-04T08:24:45.672        2024-07-05T08:24:45.672             0.001198     -0.000126             -10.526    145.111       43966.0      1.30938e5        0.00110825
    3 │ BNBBTC     0.008633       1.036    0.008632       8.139       0.013    0.009138     0.009208    0.008422    0.008632   2024-07-04T08:24:47.456999936  2024-07-05T08:24:47.456999936       0.009139     -0.000506              -5.537    878.633      277360.0  99484.9              0.00883183
    4 │ NEOBTC     0.0001604      6.52     0.0001601    318.15       33.69     0.000181     0.0001832   0.000154    0.0001603  2024-07-04T08:24:46.680        2024-07-05T08:24:46.680             0.0001812    -2.07e-5              -11.436      6.82048      3096.0  41199.0              0.00016555
  ⋮   │    ⋮          ⋮           ⋮           ⋮           ⋮           ⋮           ⋮            ⋮           ⋮           ⋮                     ⋮                              ⋮                      ⋮              ⋮               ⋮                 ⋮           ⋮            ⋮               ⋮
 2678 │ BAKETRY    6.72        3641.0      6.71        3071.0     11350.0      8.79         8.91        6.29        6.71       2024-07-04T08:24:40.859000064  2024-07-05T08:24:40.859000064       8.79         -2.08                 -23.663      3.92568e7   10195.0      5.27997e6        7.43504
 2679 │ WIFBRL     9.59          15.4      8.81        1595.9         4.5     10.05        11.96        8.72        8.84       2024-07-04T08:24:48.124        2024-07-05T08:24:48.124            10.01         -1.21                 -12.04   87665.9           111.0   9085.4              9.6491
 2680 │ ZKUSDC     0.1386      3612.7      0.138      11976.9       812.0      0.1628       0.1679      0.1275      0.1387     2024-07-04T08:24:45.328        2024-07-05T08:24:45.328             0.1602       -0.0241               -14.803      2.08508e5    1572.0      1.38955e6        0.150054
 2681 │ ZROUSDC    2.925        437.83     2.922        353.73       16.08     3.24         3.27        2.735       2.922      2024-07-04T08:24:44.710000128  2024-07-05T08:24:44.710000128       3.221        -0.318                 -9.815      1.09635e6    7957.0      3.56187e5        3.07801
                                                                                                                                                                                                                                                                                      2673 rows omitted
```
